{
  "version": "v4",
  "repo": "borisyankov/DefinitelyTyped",
  "ref": "master",
  "path": "assets/typings",
  "bundle": "assets/typings/tsd.d.ts",
  "installed": {
    "jquery/jquery.d.ts": {
      "commit": "8ebc099072402b1a80d205c3eece59bed963ad87"
    },
    "angularjs/angular.d.ts": {
      "commit": "8ebc099072402b1a80d205c3eece59bed963ad87"
    },
    "bootstrap/bootstrap.d.ts": {
      "commit": "8ebc099072402b1a80d205c3eece59bed963ad87"
    }
  }
}
